stop_making_horsies = {
	enable = {
		num_of_factories > 20
		date > 1938.1.1
	}
	abort = {
		always = no
	}

	ai_strategy = {
		type = role_ratio
		id = cavalry
		value = -100 # -100% cav
	}		
}

############
### LAND ###
############
#armor
#infantry
#motorized
#mechanized
#air_transport
#anti_air
#artillery
#anti_tank
#cavalry
#marines
#mountaineer

# No cav if we have motor inf
no_cavalry = {
	enable = {
		has_tech = motorised_infantry
	}
	abort = {
		always = no
	}
	
	ai_strategy = {
		type = role_ratio
		id = cavalry
		value = -100 
	}
}

#Mobile Warfare branch
mobile_warfare_ratios = {
	enable = {
		has_tech = mobile_warfare
	}
	abort = {
		always = no
	}
	
	ai_strategy = {
		type = role_ratio
		id = armor
		value = 10
	}
	
	ai_strategy = {
		type = role_ratio
		id = motorized
		value = 2
	}
}

superior_firepower_ratios = {
	enable = {
		has_tech = superior_firepower
	}
	abort = {
		has_tech = concentrated_fire_plans
	}
	
	ai_strategy = {
		type = role_ratio
		id = infantry
		value = 10
	}

	ai_strategy = {
		type = role_ratio
		id = artillery
		value = 15
	}
	
}

## Later in superior_firepower tree
concentrated_fire_plans_ratios = {
	enable = {
		has_tech = concentrated_fire_plans
	}
	abort = {
		always = no
	}
	
	ai_strategy = {
		type = role_ratio
		id = infantry
		value = -5
	}
	
	ai_strategy = {
		type = role_ratio
		id = armor
		value = 10
	}

	ai_strategy = {
		type = role_ratio
		id = cas
		value = 5
	}
	
}


grand_battle_plan_ratios = {
	enable = {
		has_tech = trench_warfare
	}
	abort = {
		always = no
	}
	
	ai_strategy = {
		type = role_ratio
		id = infantry
		value = 10
	}
	
	ai_strategy = {
		type = role_ratio
		id = anti_tank
		value = 5
	}	

	
}


mass_assault_ratios = {
	enable = {
		has_tech = mass_assault
	}
	abort = {
		has_tech = large_front_operations
	}
	
	ai_strategy = {
		type = role_ratio
		id = infantry
		value = 25
	}	

	ai_strategy = {
		type = role_ratio
		id = anti_tank
		value = 5
	}

}

#Later in  mass_assault tree
large_front_operations_ratios = {
	enable = {
		has_tech = large_front_operations
	}
	abort = {
		always = no
	}

	ai_strategy = {
		type = role_ratio
		id = infantry
		value = -10
	}

	ai_strategy = {
		type = role_ratio
		id = armor
		value = 10
	}
	
}