focus_tree = {
	id = greece_focus
	
	country = {
		factor = 0
		modifier = {
			add = 10
			tag = GRE
		
		}
	}
	
	default = no

	
	focus = {
		id = gre_aviation_effort
		icon = GFX_goal_generic_air_doctrine
		x = 1
		y = 0
		cost = 10

		available_if_capitulated = yes

		complete_tooltip = {
		
		}
		completion_reward = {			
				182 = {
					add_building_construction = {
						type = air_base
						level = 2
						instant_build = yes
					}
					ROOT = { set_country_flag = aviation_effort_2_AB }
				}
			}

		}
	

	focus = {
		id = gre_aviation_effort_2
		icon = GFX_goal_generic_air_doctrine
		prerequisite = { focus = gre_aviation_effort }
		x = 0
		y = 1
		relative_position_id = gre_aviation_effort
		cost = 10

		available_if_capitulated = yes


		complete_tooltip = {
			
		}
		completion_reward = {			
				182 = {
					add_building_construction = {
						type = air_base
						level = 2
						instant_build = yes
					}
					ROOT = { set_country_flag = aviation_effort_2_AB }
				}
			}

		}
	
	focus = {
		id = gre_production_effort
		icon = GFX_goal_generic_construct_mil_factory
		x = 5
		y = 0
		cost = 10

		available_if_capitulated = yes

		complete_tooltip = {

		}

		completion_reward = {
			185 = {
				add_extra_state_shared_building_slots = 1
				add_building_construction = {
					type = arms_factory
					level = 1
					instant_build = yes
				}
			}
		}
	}
	
	
	focus = {
		id = gre_production_effort_2
		icon = GFX_goal_generic_construct_mil_factory
		prerequisite = { focus = gre_production_effort }
		x = 0
		y = 1
		relative_position_id = gre_production_effort
		cost = 10

		available_if_capitulated = yes
		
		complete_tooltip = {

		}

		completion_reward = {
			185 = {
				add_extra_state_shared_building_slots = 1
				add_building_construction = {
					type = arms_factory
					level = 1
					instant_build = yes
				}
			}
		}
	}
	
		focus = {
		id = gre_production_effort_3
		icon = GFX_goal_generic_construct_mil_factory
		prerequisite = { focus = gre_production_effort_2 }
		x = 0
		y = 1
		relative_position_id = gre_production_effort_2
		cost = 10

		available_if_capitulated = yes
		
		complete_tooltip = {

		}

		completion_reward = {
			185 = {
				add_extra_state_shared_building_slots = 1
				add_building_construction = {
					type = arms_factory
					level = 1
					instant_build = yes
				}
			}
		}
	}

	focus = {
		id = gre_construction_effort
		icon = GFX_goal_generic_construct_civ_factory
		x = 3
		y = 0
		cost = 10

		available_if_capitulated = yes

		complete_tooltip = {

		}		

		completion_reward = {
			185 = {
				add_extra_state_shared_building_slots = 1
				add_building_construction = {
					type = industrial_complex
					level = 1
					instant_build = yes
				}
			}
		}
	}
	
	focus = {
		id = gre_construction_effort_2
		icon = GFX_goal_generic_construct_civ_factory
		prerequisite = { focus = gre_construction_effort }
		x = 0
		y = 1
		relative_position_id = gre_construction_effort
		cost = 10

		available_if_capitulated = yes


		ai_will_do = {
			factor = 2
		}

		bypass = {
		
		}

		complete_tooltip = {
			
		}

		completion_reward = {
			186 = {
				add_extra_state_shared_building_slots = 1
				add_building_construction = {
					type = industrial_complex
					level = 1
					instant_build = yes
				}
			}
		}
	}

	focus = {
		id = gre_infrastructure_effort
		icon = GFX_goal_generic_construct_infrastructure
		prerequisite = { focus = gre_construction_effort_2 }
		x = 0
		y = 1
		relative_position_id = gre_construction_effort_2
		cost = 10

		available_if_capitulated = yes


		complete_tooltip = {
	
		}

		completion_reward = {
			185 = {
				add_building_construction = {
					type = infrastructure
					level = 3
					instant_build = yes
				}
			}
		}
	}

	focus = {
		id = gre_infrastructure_effort_2
		icon = GFX_goal_generic_construct_infrastructure
		prerequisite = { focus = gre_infrastructure_effort }
		x = 0
		y = 1
		relative_position_id = gre_infrastructure_effort
		cost = 10

		available_if_capitulated = yes

		complete_tooltip = {
		
		}

		completion_reward = {
			47 = {
				add_building_construction = {
					type = infrastructure
					level = 3
					instant_build = yes
				}
			}
	
		}
	}

	focus = {
		id = gre_construction_effort_3
		icon = GFX_goal_generic_construct_civ_factory
		prerequisite = { focus = gre_infrastructure_effort_2 }
		x = 0
		y = 1
		relative_position_id = gre_infrastructure_effort_2
		cost = 10

		available_if_capitulated = yes


		ai_will_do = {
			factor = 2
		}

		bypass = {
		
		}

		complete_tooltip = {
			
		}

		completion_reward = {
			186 = {
				add_extra_state_shared_building_slots = 2
				add_building_construction = {
					type = industrial_complex
					level = 2
					instant_build = yes
				}
			}
		}
	}
	
		focus = {
		id = gre_naval_effort
		icon = GFX_goal_generic_construct_naval_dockyard
		x = 7
		y = 0
		cost = 10

		available_if_capitulated = yes


		available = {
			any_state = {
				is_coastal = yes
				is_controlled_by = ROOT
			}
		}

		complete_tooltip = {
		
		}
		
		completion_reward = {

				731 = {
					add_extra_state_shared_building_slots = 3
					add_building_construction = {
						type = dockyard
						level = 3
						instant_build = yes
					}
				}
		}
	}


}