state=
{
	id=147
	name="STATE_147"
	manpower = 4630
	
	state_category = enclave
	
	history = {	
		owner = FIN
		add_core_of = SOV
		buildings = {
			infrastructure = 2
		}
		add_core_of = FIN

		victory_points = {
			197 1
		}
	}

	provinces={
		197 9158 11085 	
	}
}
