
state={
	id=167
	name="STATE_167"
	manpower = 1979294
	impassable=yes
	state_category = large_town

	history={
		owner = SPR
		victory_points = {
			6906 5
		}
		victory_points = {
			4098 1
		}
		buildings = {
			infrastructure = 3
			anti_air_building = 10
			
		}
		add_core_of = SPR
	}

	provinces={
		962 3799 3873 4098 6817 6856 6906 6959 9889 9896 
	}
}
