
state={
	id=170
	name="STATE_170"
	manpower = 1782253
	impassable=yes
	state_category = large_town
	
	resources={
	}

	history={
		owner = SPR
		victory_points = {
			6902 1
		}

		buildings = {
			infrastructure = 3
			industrial_complex = 1
			anti_air_building = 10
		}
		add_core_of = SPR
	}

	provinces={
		809 931 985 3930 6866 6902 6948 6954 9839 9877 9917 9925 11756 11780 11798 11851 13230 
	}
}
