
state={
	id=178
	name="STATE_178"
	manpower = 561347
	impassable=yes
	state_category = small_island

	history={
		owner = SPR
		victory_points = {
			13071 1
		}
		buildings = {
			infrastructure = 2
			anti_air_building = 10
		}
		add_core_of = SPR
	}

	provinces={
		13071 
	}
}
