state={
id=181
name="STATE_181"
manpower = 1
state_category = town
resources={
}
history={
victory_points = {
9787 1
}
victory_points = {
6996 1
}
}
provinces={
845 889 938 3969 6818 6996 9787 11885
}
}
