state= {
id=183
name="STATE_183"
manpower = 347959
state_category = rural
resources={
chromium=3
}
history=
{
owner = ENG
add_core_of=SWE
victory_points = {
11984 3
}
victory_points = {
7193 3
}
buildings = {
infrastructure = 2
air_base = 1
7193 = {
naval_base = 2
}
}
}
provinces= { 7193 11984 }
}
