
state={
	id=222
	name="STATE_222"
	manpower = 1218607
	
	state_category = rural
	
	resources={
		steel=40 # was: 76
		chromium=8 # was: 12
	}

	history={
		owner = SOV
		victory_points = {
			9355 10
		}
		buildings = {
			infrastructure = 3
			air_base = 4
		}
		add_core_of = SOV
	}

	provinces={
		302 328 384 6355 9328 9355 9384 9411 11214 11283 11310 11337 11368 
	}
}
