
state={
	id=275
	name="STATE_275" # Transvaal
	manpower = 3680363
	
	state_category = city
	
	resources={
		steel=5 # was: 8
		chromium=73 # was: 80
		tungsten=25
	}

	history={
		owner = SAF
		buildings = {
			infrastructure = 3
			arms_factory = 1
			industrial_complex = 4
			air_base = 3
		}
		victory_points = {
			10400 10
		}
		add_core_of = SAF
	}

	provinces={
		1688 2171 2213 5106 5217 5231 10400 10566 10668 12064 12648 
	}
}
