state={
id=300
name="STATE_300"
manpower = 1
state_category = large_city
resources={
oil=1
steel=1
}
history={
owner = XXX
buildings = {
10362 = {
naval_base = 6
}
}
victory_points = {
10362 5
}
}
provinces={
1613 1626 1641 1654 4457 10347 10362 10502 12336 12440 12468 12481 12496
}
}
