
state={
	id=346
	name="STATE_346"
	manpower = 1
	
	state_category = rural

	history={
		owner = TUR
		buildings = {
			infrastructure = 2
			air_base = 5
		}
		
		victory_points = {
			940 1 
		}
		add_core_of = TUR
	}

	provinces={
		940 3788 6807 6894 9755 9763 9811 11792 11860 13122 
	}
}
