
state={
	id=356
	name="STATE_356" # Kastamonu
	manpower = 1
	state_category = rural

	history={
		owner = TUR
		victory_points = {
			6938 1 
		}
		victory_points = {
			6995 1 
		}
		buildings = {
			infrastructure = 2
			6995 = {
				naval_base = 1
			}
		}
		add_core_of = TUR
	}

	provinces={
		979 3967 3982 6920 6938 6978 6995 9844 9871 11839 11897 
	}
}
