state={
id=445
name="STATE_445"
manpower = 405100
state_category = wasteland
history={
victory_points = {
5105 1
}
owner = RAJ
add_core_of=RAJ
buildings = {
infrastructure = 2
air_base = 4
}
}
provinces={
1107 4990 5105 7847 7903 7975 8044 8098 10813
}
}
