state={
id=493
name="STATE_493"
manpower = 1
resources={
}
state_category = town
history={
victory_points = {
2023 1
}
victory_points = {
12790 5
}
}
provinces={
1937 2023 2085 4969 8056 10494 10864 12703 12790 12845 12872
}
}
