
state={
	id=5
	name="STATE_5"
	manpower = 1238108
	state_category = town

	history={
		victory_points = {
			6375 3
		}
		#victory_points = {
		#	11386 1
		#}
		owner = GER
		controller = GER
		
		buildings = {
			infrastructure = 3
			industrial_complex = 4
		}
		add_core_of = GER
	}

	provinces={
		266 3351 3380 6375 6402 9327 9346 9372 9398 11245 11386 
	}
}
