state={
id=556
name="STATE_556"
manpower = 3324782
state_category = rural
history={
owner = FRA
add_core_of=SWE
victory_points = {
4927 1
}
buildings = {
infrastructure = 2
}
}
provinces={
2012 2044 4927 5045 5101 7930 7954 8116 10788 10812 10829 10915 12751 12794 12838
}
}
