state={
	id=601
	name="STATE_601"
	resources={
		#oil=2.000
	}

	history={
		owner = CHI

		add_core_of = CHI

		buildings = {
			infrastructure = 1

		}
		victory_points = {
			10856 1
		}
		1939.1.1 = {
			buildings = {
				infrastructure = 1

			}

		}

	}

	provinces={
		4407 5018 5080 5102 8041 8059 10741 10856 
	}
	manpower=368200
	buildings_max_level_factor=1.000
	state_category=wasteland
}
