state=
{
id=631
name="STATE_631"
manpower=2159
state_category = tiny_island
resources={
oil = 15
}
history={
owner = USA
add_core_of=SWE
buildings = {
infrastructure = 2
13052 = {
naval_base = 2
}
}
victory_points = {
13052 1
}
}
provinces={
13052
}
}
