state=
{
id=650
name="STATE_650"
manpower=20
state_category = tiny_island
history=
{
owner = USA
add_core_of=SWE
victory_points = {
13067 1
}
buildings = {
infrastructure = 1
13067 = {
naval_base = 2
}
}
}
provinces=
{
13067 	}
}
