state={
id=686
name="STATE_686"
manpower = 1543913
state_category = rural
history={
owner = USA
add_core_of=SWE
victory_points = {
1440 1
}
buildings = {
infrastructure = 2
industrial_complex = 1
air_base = 4
1440 = {
naval_base = 3
}
}
}
provinces={
1440 4155
}
}
