state={
id=695
name="STATE_695"
manpower = 76299
state_category = rural
resources={
oil=35
}
history={
owner = HOL
add_core_of=SWE
victory_points = {
153 1
}
buildings = {
infrastructure = 2
153 = {
naval_base = 1
coastal_bunker = 2
}
}
}
provinces={
153
}
}
