
state={
	id=764
	name="STATE_764"
	manpower = 585579
	state_category = rural

	history={
		owner = YUG
		controller = YUG

		buildings = {
			infrastructure = 3
		}
		add_core_of = YUG
	}

	provinces={
		614 3614 6643 11787
	}
}
