state={
id=777
name="STATE_777"
history={
owner = FRA
add_core_of=SWE
victory_points = {
1951 1
}
buildings = {
industrial_complex = 2
infrastructure = 2
}
}
provinces={
1951 12843 13212
}
manpower=1101346
buildings_max_level_factor=1.000
state_category=pastoral
}
