state={
id=780
name="STATE_780"
manpower = 195041
state_category = pastoral
history={
owner = FRA
add_core_of=SWE
victory_points = {
1909 1
}
buildings = {
infrastructure = 2
1909 = {
naval_base = 1
}
}
}
provinces={
1909 4957 5039 8008 12802 12858
}
}
