scripted_gui = {
    remove_state_dockyard = {

        context_type = selected_state_context

        window_name = "remove_dockyard_container"
        parent_window_token = selected_state_view

        visible = {
            
        }

        effects = {
            remove_dockyard_click = {
                remove_building = {
                    type = dockyard
                    level = 1
                }
            }
        }

        triggers = {

            remove_dockyard_click_enabled = {
                is_owned_and_controlled_by = ROOT
                dockyard > 0
            }

            
        }

    
    }
}