﻿add_namespace = mtg_britain 

# Abdication Crisis Edward VIII
country_event = {
	id = mtg_britain.1
	title = mtg_britain.1.t
	desc = mtg_britain.1.d
	picture = GFX_report_event_eng_edward_and_wallis

	trigger = {
		tag = ENG
		has_country_flag = ENG_king_died
		date > 1936.6.1
		NOT = { has_country_flag = ENG_edward_abdicating }
		has_dlc = "Man the Guns"
	}
	
	fire_only_once = yes

	mean_time_to_happen = { days = 14 }

	option = {
		name = mtg_britain.1.c
		add_stability = 0.05
		set_country_flag = ENG_edward_abdicating
		country_event = { id = mtg_britain.14 days = 5 random_days = 5 }
	}
}

country_event = {
	id = mtg_britain.14
	title = britain.17.t
	desc = britain.17.d
	picture = GFX_report_event_generic_sign_treaty2

	is_triggered_only = yes
	
	immediate = {
		hidden_effect = {
			remove_ideas = ENG_king_edward
			add_ideas = ENG_george_vi		
		}
	}

	option = {
		name = britain.17.a
		effect_tooltip = {
			remove_ideas = ENG_king_edward
			add_ideas = ENG_george_vi		
		}
	}
}

# Motion of No Confidence event
country_event = {
	id = mtg_britain.22
	title = mtg_britain.22.t
	desc = mtg_britain.22.d
	picture = GFX_report_event_generic_parliament

	is_triggered_only = yes
	
	# Ok
	option = {
		name = mtg_britain.22.a
		retire_country_leader = yes
		create_country_leader = {
			name = "Winston Churchill"
			desc = "POLITICS_WINSTON_CHURCHILL_DESC"
			picture = "Portrait_Britain_Winston_Churchill.dds"
			expire = "1965.1.1"
			ideology = conservatism
			traits = {
				british_bulldog
			}
		}
	}
}

# Event for ENG and Dominions notifying of Imperial Conference
country_event = {
	id = mtg_britain.82
	title = mtg_britain.82.t
	desc = mtg_britain.82.d
	picture = GFX_report_event_imperial_conference

	is_triggered_only = yes
	
	# Ok
	option = {
		name = mtg_britain.82.a
		trigger = {
			tag = ENG
		}
		activate_mission = ENG_imperial_conference_decision
		set_country_flag = { flag = ENG_imperial_conference_timer_flag value = 1 days = 90 }
		every_country = {
			limit = {
				OR = {
					AND = {
						is_subject_of = ENG
						tag = CAN
					}
					AND = {
						is_subject_of = ENG
						tag = SAF
					}
					AND = {
						is_subject_of = ENG
						tag = RAJ
					}
					AND = {
						is_subject_of = ENG
						tag = AST
					}
					AND = {
						is_subject_of = ENG
						tag = NZL
					}
				}
			}
			add_opinion_modifier = { target = ROOT modifier = ENG_imperial_conference_opinion }
			custom_effect_tooltip = mtg_britain.82_tt
		}
	}

	# Ok
	option = {
		name = mtg_britain.82.b
		trigger = {
			NOT = { tag = ENG }
		}
		effect_tooltip = { add_opinion_modifier = { target = FROM modifier = ENG_imperial_conference_opinion } }
	}
}

# Event for ENG beginning discussions on Imperial Defense
country_event = {
	id = mtg_britain.83
	title = mtg_britain.83.t
	desc = mtg_britain.83.d
	picture = GFX_report_event_generic_conference

	is_triggered_only = yes

	immediate = {
		hidden_effect = {
			set_country_flag = ENG_imperial_defense_flag
		}
	}
	
	# Ask them if they want to agree to commit
	option = {
		name = mtg_britain.83.a
		every_country = {
			limit = {
				OR = {
					AND = {
						is_subject_of = ENG
						tag = CAN
					}
					AND = {
						is_subject_of = ENG
						tag = SAF
					}
					AND = {
						is_subject_of = ENG
						tag = RAJ
					}
					AND = {
						is_subject_of = ENG
						tag = AST
					}
					AND = {
						is_subject_of = ENG
						tag = NZL
					}
				}
			}
			country_event = { id = mtg_britain.84 hours = 48 random_hours = 24 }
		}
		ENG_imperial_conference_set_subject_counter = yes
	}

}

# Event for Dominions asking for vote on Imperial Defense
country_event = {
	id = mtg_britain.84
	title = mtg_britain.83.t
	desc = mtg_britain.84.d
	picture = GFX_report_event_generic_conference

	is_triggered_only = yes
	
	# Accept
	option = {
		name = mtg_britain.84.a
		ai_chance = {
			factor = 50
			modifier = {
				factor = 2
				FROM = { has_country_flag = ENG_diplomatic_pressure_flag }
			}
			modifier = {
				factor = 3
				FROM = { has_country_flag = ENG_extensive_diplomatic_pressure_flag }
			}
		}
		add_political_power = -25
		add_timed_idea = { idea = ENG_imperial_conference_defense_dominion days = 365 }
		add_opinion_modifier = {
			target = FROM
			modifier = ENG_imperial_conference_approved_resolution
		}
		FROM = { country_event = { id = mtg_britain.85 } }
		ENG = {
			if = {
				limit = {
					NOT = {
						check_variable = {
							var = ENG_imperial_conference_defense_accepted
							value = 1
							compare = greater_than_or_equals
						}
					}
				}
				set_variable = {
					var = ENG_imperial_conference_defense_accepted
					value = 0
				}
			}
			add_to_variable = {
				var = ENG_imperial_conference_defense_accepted
				value = 1
			}
		}
	}

}

# Event for ENG telling FROM voted yes on Imperial Defense
country_event = {
	id = mtg_britain.85
	title = mtg_britain.85.t
	desc = mtg_britain.85.d
	picture = GFX_report_event_generic_read_write

	is_triggered_only = yes
	
	# Ok
	option = {
		name = mtg_britain.85.a
		effect_tooltip = {
			FROM = {
				add_political_power = -25
				add_timed_idea = { idea = ENG_imperial_conference_defense_dominion days = 365 }
				add_opinion_modifier = {
					target = ROOT
					modifier = ENG_imperial_conference_approved_resolution
				}
			}
		}
		ENG_imperial_conference_defense_level_up = yes
		if = {
			limit = {
				NOT = {
					check_variable = {
						var = ENG_imperial_conference_defense_answers
						value = 1
						compare = greater_than_or_equals
					}
				}
			}
			set_variable = {
				var = ENG_imperial_conference_defense_answers
				value = 0
			}
		}
		add_to_variable = {
			var = ENG_imperial_conference_defense_answers
			value = 1
		}
		ENG_imperial_conference_clear_in_progress_flags = yes
	}
}

# Event for ENG beginning discussions on Imperial Trade
country_event = {
	id = mtg_britain.87
	title = mtg_britain.87.t
	desc = mtg_britain.87.d
	picture = GFX_report_event_generic_conference

	is_triggered_only = yes

	immediate = {
		hidden_effect = {
			set_country_flag = ENG_imperial_trade_flag
		}
	}
	
	# Ask them if they want to agree to commit
	option = {
		name = mtg_britain.83.a
		every_country = {
			limit = {
				OR = {
					AND = {
						is_subject_of = ENG
						tag = CAN
					}
					AND = {
						is_subject_of = ENG
						tag = SAF
					}
					AND = {
						is_subject_of = ENG
						tag = RAJ
					}
					AND = {
						is_subject_of = ENG
						tag = AST
					}
					AND = {
						is_subject_of = ENG
						tag = NZL
					}
				}
			}
			country_event = { id = mtg_britain.88 hours = 48 random_hours = 24 }
		}
		ENG_imperial_conference_set_subject_counter = yes
	}

}

# Event for Dominions asking for vote on Imperial Trade
country_event = {
	id = mtg_britain.88
	title = mtg_britain.87.t
	desc = mtg_britain.88.d
	picture = GFX_report_event_generic_conference

	is_triggered_only = yes
	
	# Accept
	option = {
		name = mtg_britain.88.a
		ai_chance = {
			factor = 50
			modifier = {
				factor = 2
				FROM = { has_country_flag = ENG_diplomatic_pressure_flag }
			}
			modifier = {
				factor = 3
				FROM = { has_country_flag = ENG_extensive_diplomatic_pressure_flag }
			}
		}
		add_ideas = free_trade
		add_opinion_modifier = {
			target = FROM
			modifier = ENG_imperial_conference_approved_resolution
		}
		reverse_add_opinion_modifier = { target = FROM modifier = ENG_imperial_trade }
		FROM = { country_event = { id = mtg_britain.89 } }
	}

	# Reject
	option = {
		name = mtg_britain.88.b
		ai_chance = {
			factor = 50
			modifier = {
				factor = 0.8
				has_opinion = { target = ENG value > 0 }
			}
			modifier = {
				factor = 0.8
				has_opinion = { target = ENG value > 25 }
			}
			modifier = {
				factor = 0.8
				has_opinion = { target = ENG value > 50 }
			}
			modifier = {
				factor = 0.8
				has_opinion = { target = ENG value > 75 }
			}
		}
		FROM = { country_event = { id = mtg_britain.90 } }
	}
}

# Event for ENG telling FROM voted yes on Imperial Trade
country_event = {
	id = mtg_britain.89
	title = mtg_britain.89.t
	desc = mtg_britain.89.d
	picture = GFX_report_event_generic_read_write

	is_triggered_only = yes
	
	# Ok
	option = {
		name = mtg_britain.89.a
		effect_tooltip = {
			FROM = {
				add_ideas = free_trade
				add_opinion_modifier = {
					target = ROOT
					modifier = ENG_imperial_conference_approved_resolution
				}
			}
			add_opinion_modifier = { target = FROM modifier = ENG_imperial_trade }
		}
		if = {
			limit = {
				NOT = {
					check_variable = {
						var = ENG_imperial_conference_trade_answers
						value = 1
						compare = greater_than_or_equals
					}
				}
			}
			set_variable = {
				var = ENG_imperial_conference_trade_answers
				value = 0
			}
		}
		add_to_variable = {
			var = ENG_imperial_conference_trade_answers
			value = 1
		}
		ENG_imperial_conference_clear_in_progress_flags = yes
	}
}

# Event for ENG telling FROM voted no on Imperial Trade
country_event = {
	id = mtg_britain.90
	title = mtg_britain.90.t
	desc = mtg_britain.90.d
	picture = GFX_report_event_generic_read_write

	is_triggered_only = yes
	
	# Ok
	option = {
		name = mtg_britain.90.a
		if = {
			limit = {
				NOT = {
					check_variable = {
						var = ENG_imperial_conference_trade_answers
						value = 1
						compare = greater_than_or_equals
					}
				}
			}
			set_variable = {
				var = ENG_imperial_conference_trade_answers
				value = 0
			}
		}
		add_to_variable = {
			var = ENG_imperial_conference_trade_answers
			value = 1
		}
		ENG_imperial_conference_clear_in_progress_flags = yes
	}
}

# Event for ENG beginning discussions on Imperial Economy
country_event = {
	id = mtg_britain.91
	title = mtg_britain.91.t
	desc = mtg_britain.91.d
	picture = GFX_report_event_generic_conference

	is_triggered_only = yes

	immediate = {
		hidden_effect = {
			set_country_flag = ENG_imperial_economy_flag
		}
	}
	
	# Ask them if they want to agree to commit
	option = {
		name = mtg_britain.83.a
		every_country = {
			limit = {
				OR = {
					AND = {
						is_subject_of = ENG
						tag = CAN
					}
					AND = {
						is_subject_of = ENG
						tag = SAF
					}
					AND = {
						is_subject_of = ENG
						tag = RAJ
					}
					AND = {
						is_subject_of = ENG
						tag = AST
					}
					AND = {
						is_subject_of = ENG
						tag = NZL
					}
				}
			}
			country_event = { id = mtg_britain.92 hours = 48 random_hours = 24 }
		}
		ENG_imperial_conference_set_subject_counter = yes
	}
}

# Event for Dominions asking for vote on Imperial Economy
country_event = {
	id = mtg_britain.92
	title = mtg_britain.91.t
	desc = mtg_britain.92.d
	picture = GFX_report_event_generic_conference

	is_triggered_only = yes
	
	# Accept
	option = {
		name = mtg_britain.92.a
		ai_chance = {
			factor = 50
			modifier = {
				factor = 2
				FROM = { has_country_flag = ENG_diplomatic_pressure_flag }
			}
			modifier = {
				factor = 3
				FROM = { has_country_flag = ENG_extensive_diplomatic_pressure_flag }
			}
		}
		add_political_power = -25
		add_timed_idea = { idea = ENG_imperial_conference_economy_dominion days = 365 }
		add_opinion_modifier = {
			target = FROM
			modifier = ENG_imperial_conference_approved_resolution
		}
		FROM = { country_event = { id = mtg_britain.93 } }
		ENG = {
			if = {
				limit = {
					NOT = {
						check_variable = {
							var = ENG_imperial_conference_economy_accepted
							value = 1
							compare = greater_than_or_equals
						}
					}
				}
				set_variable = {
					var = ENG_imperial_conference_economy_accepted
					value = 0
				}
			}
			add_to_variable = {
				var = ENG_imperial_conference_economy_accepted
				value = 1
			}
		}
	}
}

# Event for ENG telling FROM voted yes on Imperial Economy
country_event = {
	id = mtg_britain.93
	title = mtg_britain.93.t
	desc = mtg_britain.93.d
	picture = GFX_report_event_generic_read_write

	is_triggered_only = yes
	
	# Ok
	option = {
		name = mtg_britain.93.a
		effect_tooltip = {
			FROM = {
				add_political_power = -25
				add_timed_idea = { idea = ENG_imperial_conference_economy_dominion days = 365 }
				add_opinion_modifier = {
					target = ROOT
					modifier = ENG_imperial_conference_approved_resolution
				}
			}
		}
		ENG_imperial_conference_economy_level_up = yes
		if = {
			limit = {
				NOT = {
					check_variable = {
						var = ENG_imperial_conference_economy_answers
						value = 1
						compare = greater_than_or_equals
					}
				}
			}
			set_variable = {
				var = ENG_imperial_conference_economy_answers
				value = 0
			}
		}
		add_to_variable = {
			var = ENG_imperial_conference_economy_answers
			value = 1
		}
		ENG_imperial_conference_clear_in_progress_flags = yes
	}
}

# Event for ENG beginning discussions on Appeasement
country_event = {
	id = mtg_britain.95
	title = mtg_britain.95.t
	desc = mtg_britain.95.d
	picture = GFX_report_event_generic_conference

	is_triggered_only = yes

	immediate = {
		hidden_effect = {
			set_country_flag = ENG_imperial_appeasement_flag
		}
	}
	
	# Ask them if they want to agree to commit
	option = {
		name = mtg_britain.83.a
		every_country = {
			limit = {
				OR = {
					AND = {
						is_subject_of = ENG
						tag = CAN
					}
					AND = {
						is_subject_of = ENG
						tag = SAF
					}
					AND = {
						is_subject_of = ENG
						tag = RAJ
					}
					AND = {
						is_subject_of = ENG
						tag = AST
					}
					AND = {
						is_subject_of = ENG
						tag = NZL
					}
				}
			}
			country_event = { id = mtg_britain.96 hours = 48 random_hours = 24 }
		}
		ENG_imperial_conference_set_subject_counter = yes
	}
}

# Event for Dominions asking for vote on Appeasement
country_event = {
	id = mtg_britain.96
	title = mtg_britain.95.t
	desc = mtg_britain.96.d
	picture = GFX_report_event_generic_conference

	is_triggered_only = yes
	
	# Accept
	option = {
		name = mtg_britain.96.a
		ai_chance = {
			factor = 50
			modifier = {
				factor = 2
				FROM = { has_country_flag = ENG_diplomatic_pressure_flag }
			}
			modifier = {
				factor = 3
				FROM = { has_country_flag = ENG_extensive_diplomatic_pressure_flag }
			}
		}
		add_political_power = -25
		add_war_support = 0.1
		add_opinion_modifier = {
			target = FROM
			modifier = ENG_imperial_conference_approved_resolution
		}
		effect_tooltip = { FROM = { add_war_support = 0.03 } }
		FROM = { country_event = { id = mtg_britain.97 } }
	}
}

# Event for ENG telling FROM voted yes on Appeasement
country_event = {
	id = mtg_britain.97
	title = mtg_britain.97.t
	desc = mtg_britain.97.d
	picture = GFX_report_event_generic_read_write

	is_triggered_only = yes
	
	# Ok
	option = {
		name = mtg_britain.97.a
		effect_tooltip = {
			FROM = {
				add_political_power = -25
				add_war_support = 0.1
				add_opinion_modifier = {
					target = ROOT
					modifier = ENG_imperial_conference_approved_resolution
				}
			}
		}
		add_war_support = 0.03
		if = {
			limit = {
				NOT = {
					check_variable = {
						var = ENG_imperial_conference_appeasement_answers
						value = 1
						compare = greater_than_or_equals
					}
				}
			}
			set_variable = {
				var = ENG_imperial_conference_appeasement_answers
				value = 0
			}
		}
		add_to_variable = {
			var = ENG_imperial_conference_appeasement_answers
			value = 1
		}
		ENG_imperial_conference_clear_in_progress_flags = yes
	}
}



