
MAL_UK = {
    color = rgb { 201 56 93 }
    color_ui = rgb { 255 73 121 }
}

RSI = {
	color = rgb { 4  101  27 }
	color_ui = rgb { 24  101  27 } 
}

RAJ_UK = {
	color = rgb { 170  10  10 }
	color_ui = rgb { 200  10  10 }
}

RAJ_FREE = {
	color = rgb { 226  135  40 }
	color_ui = rgb { 226  135  40 }
}

INS_HOL = {
    color = rgb { 203 138 74 }
    color_ui = rgb { 255 179 96 }
}

HUN_EMPIRE = {
	color = rgb { 194 198 215 }
	color_ui = rgb { 255 255 255 }
}

AUS_NOT_WHITE = {	
	color = rgb { 249 126 98 }
	color_ui = rgb { 255 164 127 }
}

SCA_UNIFIED = {
	color = rgb { 0 102 204 }
	color_ui = rgb { 0 102 204 }
}

NDC_UNIFIED = {
	color = rgb { 0 76 153 }
	color_ui = rgb { 0 76 153 }
}

GCO_UNIFIED = {
	color = rgb { 255 255 51 }
	color_ui = rgb { 255 255 51 }
}

PLC_UNIFIED = {
	color = rgb { 255 125 160 }
	color_ui = rgb { 255 125 160 }
}

UNL_UNIFIED = {
	color = rgb { 255 128 0 }
	color_ui = rgb { 255 128 0 }
}

USC_UNIFIED = {
	color = rgb { 103 204 255 }
	color_ui = rgb { 103 204 255 }
}

BAL_UNIFIED = {
	color = rgb { 0 102 102 }
	color_ui = rgb { 0 102 102 }
}

OTT_UNIFIED = {
	color = rgb { 178 255 102 }
	color_ui = rgb { 178 255 102 }
}

EUR_UNIFIED = {
	color = rgb { 0 51 153 }
	color_ui = rgb { 0 51 153 }
}

MUT_UNIFIED = {
	color = rgb { 153 153 0 }
	color_ui = rgb { 153 153 0 }
}

SPQR_UNIFIED = {
	color = rgb { 153 0 0 }
	color_ui = rgb { 153 0 0 }
}

PER_UNIFIED = {
	color = rgb { 255 215 0 }
	color_ui = rgb { 255 215 0 }
}

BYZ_UNIFIED = {
	color = rgb { 143 12 125 }
	color_ui = rgb { 143 12 125 }
}

ARA_UNIFIED = {
	color = rgb { 85 102 0 }
	color_ui = rgb { 85 102 0 }
}

MAJ_UNIFIED = {
	color = rgb { 255 51 51 }
	color_ui = rgb { 255 51 51 }
}

RAT_UNIFIED = {
	color = rgb { 255 255 51 }
	color_ui = rgb { 255 255 51 }
}

HRE_UNIFIED = {
	color = rgb { 128 128 128 }
	color_ui = rgb { 128 128 128 }
}

NOR_reichskommissariat = {
	color = rgb { 115 115 115 }
	color_ui = rgb { 122 145 93 }
}

HOL_reichskommissariat = {
	color = rgb { 115 115 115 }
	color_ui = rgb { 122 145 93 }
}

BEL_reichskommissariat = {
	color = rgb { 115 115 115 }
	color_ui = rgb { 122 145 93 }
}

BLR_reichskommissariat = {
	color = rgb { 115 115 115 }
	color_ui = rgb { 122 145 93 }
}

UKR_reichskommissariat = {
	color = rgb { 115 115 115 }
	color_ui = rgb { 122 145 93 }
}

SPR_civil_war = {
	color = rgb { 200 100 31 }
	color_ui = rgb { 245 123 38 }
}

GER_civil_war = {
	color = HSV { 0.1 0.15 0.4 }
	color_ui = rgb { 138 155 116 }
}

GER_provisional_gvt = {
	color = rgb { 128 128 128 }
	color_ui = rgb { 115 115 115 }
}

GER_german_empire = {
	color = rgb { 128 128 128 }
	color_ui = rgb { 115 115 115 }
}

GER_german_monarchy = {
	color = rgb { 128 128 128 }
	color_ui = rgb { 115 115 115 }
}

CHI_warlord_leader = {
	color = hsv { 0.18 0.6 0.9 } #255 244 190
	color_ui = hsv { 0.18 0.3 0.9 }
}
MAN_restored = {
	color = rgb { 237 152 18 }
	color_ui = rgb { 224 139 5 }
}
JAP_showa_restoration = {
	color = rgb { 230 230 230 }
	color_ui = rgb { 230 230 230 }
}

GER_greater_german_reich = {
	color = rgb { 54 54 54 }
	color_ui = rgb { 115 115 115 }
}

CHI_power_struggle_defeated = {
	color = rgb { 152 130 191 }
	color_ui = rgb { 198 169 248 }
}

MEX_cristero = {
	color = rgb { 140 200 120 }
	color_ui = rgb { 200 255 200 }
}

ENG_imperial_federation_unified = {
	color = rgb { 180 0 0 }
	color_ui = rgb { 255 0 0 }
}

ENG_imperial_federation_india_unified = {
	color = rgb { 180 0 0 }
	color_ui = rgb { 255 0 0 }
}

CAN_north_america_dominion = {
	color = rgb { 160 0 0 }
	color_ui = rgb { 235 0 0 }
}

SOV_russia = {
    color = rgb { 72 143 68 }
    color_ui = rgb { 72 143 68 }
}

HOL_benelux_unified = {
	color = rgb { 255 128 0 }
	color_ui = rgb { 255 128 0 }
}
VAPE = {
	color = rgb { 21 94 12 }
	color_ui = rgb { 21 94 12 }
}
SPR_nationalist_spain = {
	color = rgb { 200 100 31 }
	color_ui = rgb { 245 123 38 }
}
FRA_VICHY = {
	color = rgb { 80 168 181 }
	color_ui = rgb {115 185 196 }
}