﻿division_template = {
	name = "Pekhotna Divizija"			# Infantry Division

	division_names_group = BUL_INF_01

	regiments = {
		infantry = { x = 0 y = 0 }
		infantry = { x = 0 y = 1 }
		infantry = { x = 0 y = 2 }
		infantry = { x = 0 y = 3 }
		artillery_brigade = { x = 0 y = 4 }
        infantry = { x = 1 y = 0 }
		infantry = { x = 1 y = 1 }
		infantry = { x = 1 y = 2 }
		infantry = { x = 1 y = 3 }
		artillery_brigade = { x = 1 y = 4 }
        infantry = { x = 2 y = 0 }
		infantry = { x = 2 y = 1 }
		infantry = { x = 2 y = 2 }
		artillery_brigade = { x = 2 y = 3 }
	infantry = { x = 3 y = 0 }
		infantry = { x = 3 y = 1 }
		infantry = { x = 3 y = 2 }
		artillery_brigade = { x = 3 y = 3 }
	}
	support = {
       	engineer = { x = 0 y = 0 }
       	artillery = { x = 0 y = 1 }
	recon = { x = 0 y = 2 }
	}
}

division_template = {
	name = "pekhotna brigada" 			# Cavalry Division

	division_names_group = BUL_INF_01

	regiments = {
	infantry = { x = 0 y = 0 }
		infantry = { x = 0 y = 1 }
		infantry = { x = 0 y = 2 }
		infantry = { x = 0 y = 3 }
		infantry = { x = 0 y = 4 }
	infantry = { x = 1 y = 0 }
		infantry = { x = 1 y = 1 }
		infantry = { x = 1 y = 2 }
		infantry = { x = 1 y = 3 }
		infantry = { x = 1 y = 4 }
	}
	priority = 0
}
units = {
	division= {	
		name = "This is here so you can look at your generals"
		location = 949
		division_template = "Pekhotna Divizija"
		start_experience_factor = 0
		start_equipment_factor = 0.01
	}
}
### Starting Production ###
instant_effect = {
	add_equipment_production = {
		equipment = {
			type = infantry_equipment_1
			creator = "BUL"
		}
		requested_factories = 1
		progress = 0.49
		efficiency = 100
	}
	add_equipment_production = {
		equipment = {
			type = support_equipment_1
			creator = "BUL"
		}
		requested_factories = 1
		progress = 0.73
		efficiency = 100
	}
	add_equipment_production = {
		equipment = {
			type = motorized_equipment_1
			creator = "BUL" 
		}
		requested_factories = 1
		progress = 0.4
		efficiency = 100
	}
	add_equipment_production = {
		equipment = {
			type = artillery_equipment_1
			creator = "BUL"
		}
		requested_factories = 1
		progress = 0.24
		efficiency = 100
	}
}